Covid Daily Report
…
## # A tibble: 1 x 2
##   date       new_cases
##   <date>         <int>
## 1 2020-11-05    116154

## # A tibble: 1 x 2
##   date       new_cases_07da
##   <date>              <dbl>
## 1 2020-11-05         92872.

## # A tibble: 77 x 2
##    date       new_death
##    <date>         <int>
##  1 2020-11-05      1122
##  2 2020-11-03      1527
##  3 2020-10-22      1143
##  4 2020-09-23      1159
##  5 2020-09-16      1199
##  6 2020-09-10      1170
##  7 2020-08-27      1128
##  8 2020-08-26      1294
##  9 2020-08-25      1146
## 10 2020-08-21      1122
## #  with 67 more rows

## # A tibble: 95 x 2
##    date       new_death_07da
##    <date>              <dbl>
##  1 2020-11-05           932.
##  2 2020-08-28           934.
##  3 2020-08-27           948.
##  4 2020-08-26           948.
##  5 2020-08-25           966.
##  6 2020-08-24           973.
##  7 2020-08-23           983.
##  8 2020-08-22           989.
##  9 2020-08-21          1017.
## 10 2020-08-20          1030.
## #  with 85 more rows

## # A tibble: 47 x 2
##    date       cur_hosp
##    <date>        <int>
##  1 2020-11-05    53232
##  2 2020-08-05    53350
##  3 2020-08-04    53323
##  4 2020-08-03    53372
##  5 2020-08-02    54015
##  6 2020-08-01    54468
##  7 2020-07-31    55591
##  8 2020-07-30    56425
##  9 2020-07-29    57335
## 10 2020-07-28    57086
## #  with 37 more rows

## # A tibble: 32 x 2
##    date       new_hosp
##    <date>        <int>
##  1 2020-11-05     1277
##  2 2020-11-04     1709
##  3 2020-11-03     1878
##  4 2020-10-27     1291
##  5 2020-10-20     1402
##  6 2020-10-19     1384
##  7 2020-10-06     1287
##  8 2020-07-16     1296
##  9 2020-07-14     1554
## 10 2020-07-08     1316
## #  with 22 more rows

## # A tibble: 40 x 2
##    date       new_hosp_07da
##    <date>             <dbl>
##  1 2020-11-05         1032.
##  2 2020-11-04          999.
##  3 2020-11-03          874.
##  4 2020-10-29          725.
##  5 2020-10-27          710.
##  6 2020-10-26          726 
##  7 2020-10-21          459.
##  8 2020-10-20          453 
##  9 2020-10-19          393 
## 10 2020-10-06          297 
## #  with 30 more rows
…
