Covid Daily Report
…
LW: 8.6%

 New Deaths (7 day avg)

T: 1,136 (1,453)

Y: 803 (1,427)

LW: 956 (1,516)

* = Record

 Compared to other Mondays

## # A tibble: 45 x 14
##    date       day   new_cases new_tests percent_pos new_death cur_hosp new_hosp
##    <date>     <chr>     <int>     <int>       <dbl>     <int>    <int>    <int>
##  1 2020-11-30 Mond    147038   1595587       0.092      1136    95992     2771
##  2 2020-11-23 Mond    150922   1757166       0.086       956    85822     2093
##  3 2020-11-16 Mond    148812   1485912       0.1         633    73198     3160
##  4 2020-11-09 Mond    119190   1515526       0.079       588    59226     2457
##  5 2020-11-02 Mond     82042   1326335       0.062       499    48591     1160
##  6 2020-10-26 Mond     62400   1209919       0.052       398    42847     1138
##  7 2020-10-19 Mond     57029   1134139       0.05        461    37790     1401
##  8 2020-10-12 Mond     42551   1058852       0.04        287    35001      563
##  9 2020-10-05 Mond     37705    991357       0.038       338    31294     1011
## 10 2020-09-28 Mond     35847   1160068       0.031       262    29573      160
## #  with 35 more rows, and 6 more variables: new_cases_07da <dbl>,
## #   new_tests_07da <dbl>, percent_pos_07da <dbl>, new_death_07da <dbl>,
## #   cur_hosp_07da <dbl>, new_hosp_07da <dbl>
…
##    <date>              <dbl>
##  1 2020-11-30        158172.
##  2 2020-11-29        158727 
##  3 2020-11-28        160949.
##  4 2020-11-27        164549 
##  5 2020-11-26        164402 
##  6 2020-11-25        172480.
##  7 2020-11-24        169667.
##  8 2020-11-23        168194.
##  9 2020-11-22        167893.
## 10 2020-11-21        166968.
## 11 2020-11-20        164653.
## 12 2020-11-19        161693.

## # A tibble: 89 x 2
##    date       new_death
##    <date>         <int>
##  1 2020-11-30      1136
##  2 2020-11-28      1232
##  3 2020-11-27      1366
##  4 2020-11-26      1324
##  5 2020-11-25      2283
##  6 2020-11-24      2028
##  7 2020-11-21      1511
##  8 2020-11-20      1860
##  9 2020-11-19      1970
## 10 2020-11-18      1869
## #  with 79 more rows

## # A tibble: 44 x 2
##    date       new_death_07da
##    <date>              <dbl>
##  1 2020-11-30          1453.
##  2 2020-11-27          1480.
##  3 2020-11-26          1550.
##  4 2020-11-25          1643.
##  5 2020-11-24          1583.
##  6 2020-11-23          1516.
##  7 2020-11-22          1469.
##  8 2020-05-14          1465.
##  9 2020-05-13          1593 
## 10 2020-05-12          1619.
## #  with 34 more rows
…
## # A tibble: 7 x 2
##   date       new_hosp
##   <date>        <int>
## 1 2020-11-30     2771
## 2 2020-11-17     3691
## 3 2020-11-16     3160
## 4 2020-11-11     3401
## 5 2020-04-14     3290
## 6 2020-04-06     3818
## 7 2020-04-03     3026

## # A tibble: 37 x 2
##    date       new_hosp_07da
##    <date>             <dbl>
##  1 2020-11-30         1453.
##  2 2020-11-29         1356 
##  3 2020-11-28         1206.
##  4 2020-11-25         1509.
##  5 2020-11-24         1592.
##  6 2020-11-23         1803.
##  7 2020-11-20         1954.
##  8 2020-11-18         1996.
##  9 2020-11-17         2130.
## 10 2020-11-16         1996 
## #  with 27 more rows
…
