Covid Daily Report
…
LW: 6.2%

 New Deaths (7 day avg)

T: 1,353 (2,858)

Y: 1,078 (3,064)

LW: 2,795 (3,002)

* = Record

 Compared to other Tuesdays

## # A tibble: 58 x 14
##    date       day   new_cases new_tests percent_pos new_death cur_hosp new_hosp
##    <date>     <chr>     <int>     <int>       <dbl>     <int>    <int>    <int>
##  1 2021-02-16 Tues     56310   1059903       0.053      1353    64527     -922
##  2 2021-02-09 Tues     92970   1501561       0.062      2795    79171     -875
##  3 2021-02-02 Tues    117608   1402284       0.084      3486    92874     -656
##  4 2021-01-26 Tues    146427   1724358       0.085      3734   108949     -977
##  5 2021-01-19 Tues    146595   1726691       0.085      2141   123812      -29
##  6 2021-01-12 Tues    217994   1957984       0.111      4064   131317     1533
##  7 2021-01-05 Tues    219049   1713858       0.128      3483   131185     2983
##  8 2020-12-29 Tues    199667   1321871       0.151      3289   124667     3484
##  9 2020-12-22 Tues    192968   1757319       0.11       3136   117754     2421
## 10 2020-12-15 Tues    193185   1831363       0.105      2924   112788     2240
## #  with 48 more rows, and 6 more variables: new_cases_07da <dbl>,
## #   new_tests_07da <dbl>, percent_pos_07da <dbl>, new_death_07da <dbl>,
## #   cur_hosp_07da <dbl>, new_hosp_07da <dbl>
…
## # A tibble: 10 x 3
##    date       day       new_cases_07da
##    <date>     <chr>              <dbl>
##  1 2021-01-11 Monday           247085 
##  2 2021-01-12 Tuesday          246934.
##  3 2021-01-10 Sunday           244843.
##  4 2021-01-08 Friday           243512.
##  5 2021-01-13 Wednesday        243268.
##  6 2021-01-09 Saturday         241947.
##  7 2021-01-14 Thursday         236638.
##  8 2021-01-15 Friday           229691.
##  9 2021-01-07 Thursday         227487.
## 10 2021-01-16 Saturday         222364.

## # A tibble: 152 x 2
##    date       new_cases
##    <date>         <int>
##  1 2021-02-16     56310
##  2 2021-02-14     72161
##  3 2021-02-13     90639
##  4 2021-02-12    101007
##  5 2021-02-11    102394
##  6 2021-02-10     95172
##  7 2021-02-09     92970
##  8 2021-02-08     77722
##  9 2021-02-07     95971
## 10 2021-02-06    114550
## #  with 142 more rows

## # A tibble: 108 x 2
##    date       new_cases_07da
##    <date>              <dbl>
##  1 2021-02-16         81820.
##  2 2021-02-15         87057.
##  3 2021-02-14         90295 
##  4 2021-02-13         93696.
##  5 2021-02-12         97112.
##  6 2021-02-11        101413.
##  7 2021-02-10        104486.
##  8 2021-02-09        107597.
##  9 2021-02-08        111116.
## 10 2021-02-07        117178.
## #  with 98 more rows

## # A tibble: 127 x 2
##    date       new_death
##    <date>         <int>
##  1 2021-02-16      1353
##  2 2021-02-14      1366
##  3 2021-02-13      3467
##  4 2021-02-12      5427
##  5 2021-02-11      3872
##  6 2021-02-10      3445
##  7 2021-02-09      2795
##  8 2021-02-07      1474
##  9 2021-02-06      2994
## 10 2021-02-05      3543
## #  with 117 more rows

## # A tibble: 39 x 2
##    date       new_death_07da
##    <date>              <dbl>
##  1 2021-02-16          2858.
##  2 2021-02-15          3064.
##  3 2021-02-14          3097.
##  4 2021-02-13          3113.
##  5 2021-02-12          3045.
##  6 2021-02-10          2967.
##  7 2021-02-09          3002.
##  8 2021-02-08          3100.
##  9 2021-02-07          3137.
## 10 2021-02-06          3220.
## #  with 29 more rows

## # A tibble: 98 x 2
##    date       cur_hosp
##    <date>        <int>
##  1 2021-02-16    64527
##  2 2021-02-15    65449
##  3 2021-02-14    67017
##  4 2021-02-13    69276
##  5 2021-02-12    71489
##  6 2021-02-11    74215
##  7 2021-02-10    76969
##  8 2021-02-09    79171
##  9 2021-02-08    80046
## 10 2021-02-07    81430
## #  with 88 more rows

## # A tibble: 330 x 2
##    date       new_hosp
##    <date>        <int>
##  1 2021-02-16     -922
##  2 2021-02-09     -875
##  3 2021-02-02     -656
##  4 2021-01-25     -691
##  5 2021-01-19      -29
##  6 2021-01-18     -539
##  7 2021-01-12     1533
##  8 2021-01-11      572
##  9 2021-01-08     -447
## 10 2021-01-07     -105
## #  with 320 more rows

## # A tibble: 383 x 2
##    date       new_hosp_07da
##    <date>             <dbl>
##  1 2021-02-16        -2092 
##  2 2021-02-15        -2085.
##  3 2021-02-09        -1958.
##  4 2021-02-08        -1926.
##  5 2021-02-03        -2286.
##  6 2021-02-02        -2296.
##  7 2021-02-01        -2342.
##  8 2021-01-27        -2179.
##  9 2021-01-26        -2123.
## 10 2021-01-25        -1988.
## #  with 373 more rows
…
